%YAML 1.1
%TAG !u! tag:unity3d.com,2011:
--- !u!1 &4809749587520853353
GameObject:
  m_ObjectHideFlags: 0
  m_CorrespondingSourceObject: {fileID: 0}
  m_PrefabInstance: {fileID: 0}
  m_PrefabAsset: {fileID: 0}
  serializedVersion: 6
  m_Component:
  - component: {fileID: 8082116590905584830}
  - component: {fileID: 5618674522594977342}
  - component: {fileID: 9085885019173663775}
  m_Layer: 0
  m_Name: RedBaseFlag
  m_TagString: Untagged
  m_Icon: {fileID: 0}
  m_NavMeshLayer: 0
  m_StaticEditorFlags: 0
  m_IsActive: 1
--- !u!4 &8082116590905584830
Transform:
  m_ObjectHideFlags: 0
  m_CorrespondingSourceObject: {fileID: 0}
  m_PrefabInstance: {fileID: 0}
  m_PrefabAsset: {fileID: 0}
  m_GameObject: {fileID: 4809749587520853353}
  m_LocalRotation: {x: 0, y: 0, z: 0, w: 1}
  m_LocalPosition: {x: 0, y: 0, z: 0}
  m_LocalScale: {x: 1, y: 1, z: 1}
  m_Children:
  - {fileID: 199944161753609767}
  m_Father: {fileID: 0}
  m_RootOrder: 0
  m_LocalEulerAnglesHint: {x: 0, y: 0, z: 0}
--- !u!65 &5618674522594977342
BoxCollider:
  m_ObjectHideFlags: 0
  m_CorrespondingSourceObject: {fileID: 0}
  m_PrefabInstance: {fileID: 0}
  m_PrefabAsset: {fileID: 0}
  m_GameObject: {fileID: 4809749587520853353}
  m_Material: {fileID: 0}
  m_IsTrigger: 1
  m_Enabled: 1
  serializedVersion: 2
  m_Size: {x: 1, y: 1, z: 1}
  m_Center: {x: 0, y: 0.5, z: 0}
--- !u!114 &9085885019173663775
MonoBehaviour:
  m_ObjectHideFlags: 0
  m_CorrespondingSourceObject: {fileID: 0}
  m_PrefabInstance: {fileID: 0}
  m_PrefabAsset: {fileID: 0}
  m_GameObject: {fileID: 4809749587520853353}
  m_Enabled: 1
  m_EditorHideFlags: 0
  m_Script: {fileID: 11500000, guid: 5a9f084991dae403b9f5087b183f74e2, type: 3}
  m_Name: 
  m_EditorClassIdentifier: 
  verbosity: 0
  defaultCameraTarget: 0
  shortName: Red Flag
  color: {r: 1, g: 0, b: 0, a: 1}
  data: {fileID: 0}
  entityTypes:
    types:
    - {fileID: 11400000, guid: af6e35fd7af0c4fac8654f7293adb319, type: 2}
    - {fileID: 11400000, guid: 391f37f2dc16e4b44a766593c789aeb3, type: 2}
  maxHealth: 100
  health: 100
--- !u!1001 &5394214414333352525
PrefabInstance:
  m_ObjectHideFlags: 0
  serializedVersion: 2
  m_Modification:
    m_TransformParent: {fileID: 8082116590905584830}
    m_Modifications:
    - target: {fileID: 5195536906084756586, guid: ae124bd2702ad48208c0a4cdf400d6f7, type: 3}
      propertyPath: m_RootOrder
      value: 0
      objectReference: {fileID: 0}
    - target: {fileID: 5195536906084756586, guid: ae124bd2702ad48208c0a4cdf400d6f7, type: 3}
      propertyPath: m_LocalPosition.x
      value: 0
      objectReference: {fileID: 0}
    - target: {fileID: 5195536906084756586, guid: ae124bd2702ad48208c0a4cdf400d6f7, type: 3}
      propertyPath: m_LocalPosition.y
      value: 2
      objectReference: {fileID: 0}
    - target: {fileID: 5195536906084756586, guid: ae124bd2702ad48208c0a4cdf400d6f7, type: 3}
      propertyPath: m_LocalPosition.z
      value: 0
      objectReference: {fileID: 0}
    - target: {fileID: 5195536906084756586, guid: ae124bd2702ad48208c0a4cdf400d6f7, type: 3}
      propertyPath: m_LocalRotation.w
      value: 0.92387956
      objectReference: {fileID: 0}
    - target: {fileID: 5195536906084756586, guid: ae124bd2702ad48208c0a4cdf400d6f7, type: 3}
      propertyPath: m_LocalRotation.x
      value: -0.3826835
      objectReference: {fileID: 0}
    - target: {fileID: 5195536906084756586, guid: ae124bd2702ad48208c0a4cdf400d6f7, type: 3}
      propertyPath: m_LocalRotation.y
      value: -0
      objectReference: {fileID: 0}
    - target: {fileID: 5195536906084756586, guid: ae124bd2702ad48208c0a4cdf400d6f7, type: 3}
      propertyPath: m_LocalRotation.z
      value: -0
      objectReference: {fileID: 0}
    - target: {fileID: 5195536906084756586, guid: ae124bd2702ad48208c0a4cdf400d6f7, type: 3}
      propertyPath: m_LocalEulerAnglesHint.x
      value: 0
      objectReference: {fileID: 0}
    - target: {fileID: 5195536906084756586, guid: ae124bd2702ad48208c0a4cdf400d6f7, type: 3}
      propertyPath: m_LocalEulerAnglesHint.y
      value: 0
      objectReference: {fileID: 0}
    - target: {fileID: 5195536906084756586, guid: ae124bd2702ad48208c0a4cdf400d6f7, type: 3}
      propertyPath: m_LocalEulerAnglesHint.z
      value: 0
      objectReference: {fileID: 0}
    - target: {fileID: 5195536906085073786, guid: ae124bd2702ad48208c0a4cdf400d6f7, type: 3}
      propertyPath: m_Name
      value: RedFlagModel
      objectReference: {fileID: 0}
    m_RemovedComponents: []
  m_SourcePrefab: {fileID: 100100000, guid: ae124bd2702ad48208c0a4cdf400d6f7, type: 3}
--- !u!4 &199944161753609767 stripped
Transform:
  m_CorrespondingSourceObject: {fileID: 5195536906084756586, guid: ae124bd2702ad48208c0a4cdf400d6f7, type: 3}
  m_PrefabInstance: {fileID: 5394214414333352525}
  m_PrefabAsset: {fileID: 0}
