%YAML 1.1
%TAG !u! tag:unity3d.com,2011:
--- !u!114 &11400000
MonoBehaviour:
  m_ObjectHideFlags: 0
  m_CorrespondingSourceObject: {fileID: 0}
  m_PrefabInstance: {fileID: 0}
  m_PrefabAsset: {fileID: 0}
  m_GameObject: {fileID: 0}
  m_Enabled: 1
  m_EditorHideFlags: 0
  m_Script: {fileID: 11500000, guid: ecf83a1cd00d4ef39a5307e610970abc, type: 3}
  m_Name: Rocket
  m_EditorClassIdentifier: 
  verbosity: 0
  description: A rocket projectile.
  shortDescription: Rocket
