%YAML 1.1
%TAG !u! tag:unity3d.com,2011:
--- !u!114 &11400000
MonoBehaviour:
  m_ObjectHideFlags: 0
  m_CorrespondingSourceObject: {fileID: 0}
  m_PrefabInstance: {fileID: 0}
  m_PrefabAsset: {fileID: 0}
  m_GameObject: {fileID: 0}
  m_Enabled: 1
  m_EditorHideFlags: 0
  m_Script: {fileID: 11500000, guid: b061cad19550a430988935c38e07041a, type: 3}
  m_Name: CathysThotsQueue
  m_EditorClassIdentifier: 
  reverseOrder: 0
  messageLifespan: 20
  maximumMessages: 10
  defaultMessageColor: {r: 1, g: 1, b: 1, a: 1}
